\relax 
\providecommand\hyper@newdestlabel[2]{}
\providecommand*\new@tpo@label[2]{}
\providecommand\babel@aux[2]{}
\@nameuse{bbl@beforestart}
\AC@reset@newl@bel
\providecommand\HyperFirstAtBeginDocument{\AtBeginDocument}
\HyperFirstAtBeginDocument{\ifx\hyper@anchor\@undefined
\global\let\oldcontentsline\contentsline
\gdef\contentsline#1#2#3#4{\oldcontentsline{#1}{#2}{#3}}
\global\let\oldnewlabel\newlabel
\gdef\newlabel#1#2{\newlabelxx{#1}#2}
\gdef\newlabelxx#1#2#3#4#5#6{\oldnewlabel{#1}{{#2}{#3}}}
\AtEndDocument{\ifx\hyper@anchor\@undefined
\let\contentsline\oldcontentsline
\let\newlabel\oldnewlabel
\fi}
\fi}
\global\let\hyper@last\relax 
\gdef\HyperFirstAtBeginDocument#1{#1}
\providecommand\HyField@AuxAddToFields[1]{}
\providecommand\HyField@AuxAddToCoFields[2]{}
\providecommand\BKM@entry[2]{}
\BKM@entry{id=1,open,dest={5469746C65706167652E30},srcline={2}}{5469746C6570616765}
\citation{clerckx2018}
\citation{clerckx2019}
\citation{xu2017}
\citation{boaventura2015}
\citation{valenta2013a}
\citation{clerckx2016}
\citation{clerckx2017a}
\citation{lu2017}
\citation{gregorio2007a}
\newacroplural{NLIN}[NLINs]{Nonlinearities}
\newacroplural{PSD}[PSDs]{Power Spectral Densities}
\babel@aux{american}{}
\providecommand\mph@setcol[2]{}
\@writefile{lof}{\deactivateaddvspace  }
\@writefile{lot}{\deactivateaddvspace  }
\mph@setcol{ii:1}{\mph@nr}
\BKM@entry{id=2,open,dest={64756D6D792E31},srcline={10}}{4269626C696F677261706879}
\bibstyle{unsrt}
\bibdata{Bibliography}
\bibcite{clerckx2018}{1}
\bibcite{clerckx2019}{2}
\bibcite{xu2017}{3}
\bibcite{boaventura2015}{4}
\bibcite{valenta2013a}{5}
\bibcite{clerckx2016}{6}
\bibcite{clerckx2017a}{7}
\bibcite{lu2017}{8}
\@writefile{toc}{\vspace {\beforebibskip }}
\@writefile{toc}{\contentsline {chapter}{\spacedlowsmallcaps  {Bibliography}}{2}{dummy.1}\protected@file@percent }
\newlabel{app:bibliography}{{1}{2}{}{dummy.1}{}}
\newlabel{app:bibliography@cref}{{[dummy][1][]1}{[1][2][]2}}
\mph@setcol{ii:2}{\mph@nr}
\bibcite{gregorio2007a}{9}
\mph@setcol{ii:3}{\mph@nr}
\gdef\mph@lastpage{4}
\csname mph@do@warn\endcsname
\gdef \@abspage@last{3}
