\relax 
\providecommand\hyper@newdestlabel[2]{}
\providecommand*\new@tpo@label[2]{}
\AC@reset@newl@bel
\providecommand\HyperFirstAtBeginDocument{\AtBeginDocument}
\HyperFirstAtBeginDocument{\ifx\hyper@anchor\@undefined
\global\let\oldcontentsline\contentsline
\gdef\contentsline#1#2#3#4{\oldcontentsline{#1}{#2}{#3}}
\global\let\oldnewlabel\newlabel
\gdef\newlabel#1#2{\newlabelxx{#1}#2}
\gdef\newlabelxx#1#2#3#4#5#6{\oldnewlabel{#1}{{#2}{#3}}}
\AtEndDocument{\ifx\hyper@anchor\@undefined
\let\contentsline\oldcontentsline
\let\newlabel\oldnewlabel
\fi}
\fi}
\global\let\hyper@last\relax 
\gdef\HyperFirstAtBeginDocument#1{#1}
\providecommand\HyField@AuxAddToFields[1]{}
\providecommand\HyField@AuxAddToCoFields[2]{}
\providecommand\BKM@entry[2]{}
\BKM@entry{id=1,open,dest={5469746C65706167652E30},srcline={2}}{5469746C6570616765}
\citation{huang2013e}
\citation{lu2017a}
\citation{clerckx2018b}
\citation{clerckx2019}
\citation{xu2017}
\citation{boaventura2015}
\citation{valenta2013a}
\citation{clerckx2016}
\citation{clerckx2017a}
\citation{gregorio2007a}
\BKM@entry{id=2,open,dest={64756D6D792E31},srcline={10}}{4269626C696F677261706879}
\bibstyle{abbrv}
\bibdata{Bibliography}
\bibcite{boaventura2015}{1}
\newacroplural{NLIN}[NLINs]{Nonlinearities}
\newacroplural{PSD}[PSDs]{Power Spectral Densities}
\babel@aux{american}{}
\providecommand\mph@setcol[2]{}
\@writefile{lof}{\deactivateaddvspace  }
\@writefile{lot}{\deactivateaddvspace  }
\@writefile{toc}{\vspace {\beforebibskip }}
\@writefile{toc}{\contentsline {chapter}{\spacedlowsmallcaps  {Bibliography}}{1}{dummy.1}\protected@file@percent }
\newlabel{app:bibliography}{{1}{1}{}{dummy.1}{}}
\newlabel{app:bibliography@cref}{{[dummy][1][]1}{[1][1][]1}}
\mph@setcol{ii:1}{\mph@nr}
\bibcite{clerckx2018b}{2}
\bibcite{clerckx2016}{3}
\bibcite{clerckx2017a}{4}
\bibcite{clerckx2019}{5}
\bibcite{gregorio2007a}{6}
\bibcite{huang2013e}{7}
\bibcite{lu2017a}{8}
\bibcite{valenta2013a}{9}
\bibcite{xu2017}{10}
\mph@setcol{ii:2}{\mph@nr}
\gdef\mph@lastpage{3}
\csname mph@do@warn\endcsname
